#define sunny_width 37
#define sunny_height 37
static unsigned char sunny_bits[] = {
   0x00, 0x00, 0x04, 0x00, 0x00, 0x00, 0x08, 0x06, 0x03, 0x00, 0x00, 0x1c,
   0x8c, 0x03, 0x00, 0x00, 0x3c, 0x86, 0x03, 0x00, 0x00, 0x38, 0x8c, 0x03,
   0x00, 0x40, 0x38, 0xc6, 0xc1, 0x00, 0xc0, 0xf0, 0xff, 0xe1, 0x00, 0xc0,
   0xf1, 0xff, 0x61, 0x00, 0xc0, 0xff, 0xf3, 0x7f, 0x00, 0x00, 0x1f, 0x00,
   0x1f, 0x00, 0x9e, 0x07, 0x00, 0x3c, 0x07, 0xbe, 0x03, 0x00, 0xb8, 0x07,
   0xfc, 0x03, 0x00, 0xf8, 0x07, 0xe0, 0x41, 0x10, 0xf0, 0x00, 0xc0, 0x00,
   0x00, 0x70, 0x00, 0xc0, 0x00, 0x00, 0x60, 0x00, 0xc0, 0x80, 0x04, 0x60,
   0x00, 0xff, 0x10, 0x00, 0xe2, 0x1f, 0xff, 0x00, 0x00, 0xe0, 0x1f, 0xff,
   0x10, 0x00, 0xe0, 0x1f, 0xc0, 0x00, 0x00, 0x60, 0x00, 0xc0, 0x80, 0x00,
   0x60, 0x00, 0xc0, 0x01, 0x08, 0x70, 0x00, 0xf8, 0x01, 0x40, 0xf0, 0x03,
   0xfe, 0x03, 0x00, 0xf8, 0x0f, 0xbe, 0x07, 0x00, 0xbc, 0x0f, 0x06, 0x0f,
   0x08, 0x1e, 0x04, 0x00, 0x9f, 0x00, 0x3f, 0x00, 0xc0, 0xfb, 0xff, 0x73,
   0x00, 0xc0, 0xf1, 0xff, 0xe1, 0x00, 0xe0, 0xf0, 0xff, 0xc1, 0x00, 0x00,
   0x38, 0xcc, 0x01, 0x00, 0x00, 0x38, 0x8e, 0x03, 0x00, 0x00, 0x1c, 0x84,
   0x03, 0x00, 0x00, 0x1c, 0x8c, 0x03, 0x00, 0x00, 0x08, 0x06, 0x03, 0x00,
   0x00, 0x00, 0x04, 0x00, 0x00 };
